8;
FFFFFF;
000000;
47 49 46 38 39 61 10 00 10 00 A2 00 00 
[1][2][3][4][5][6][7][8]      
               2C 00 00 00 00 10 00 10 00 40 03
5C 08 0A 32 64 86 0C B1 80 19 76 04 70 84 38 07
76 18 82 01 9E E8 49 02 43 EA 86 4A D0 BE A0 06
10 05 63 14 1F F6 04 1F C9 81 B0 01 D6 36 25 18
40 66 4A 5D 36 0B A6 EB B9 98 D1 6A AC 21 F4 13
42 9A 06 17 0B 61 DC E1 8A 22 B9 92 C8 67 30 12
92 57 D0 4A 16 B7 55 1A 8F C8 A4 92 00 00 3B